786676 717373 468
183340 708492 509
907532 496691 525
773008 489862 509
836571 263809 509
988899 435298 525
980325 397007 525
586408 746907 509
676777 136277 509
105395 156048 375
55474 568227 470
684297 438145 509
348171 352272 379
583934 722435 509
876056 833957 525
272727 871549 525
84002 897206 525
295671 221117 443
978970 145016 525
872049 790992 525
857577 143473 525
146500 591489 470
474048 854345 525
251729 134787 443
172619 399924 443
927813 989661 507
611063 354621 470
514562 430053 470
483174 577199 470
34178 620700 470
953219 777652 525
692149 790140 504
456072 545189 470
964859 399462 525
567986 584902 434
222664 637440 509
528076 790499 509
619032 789374 509
178097 67582 383
990600 65751 525
169129 829342 509
681208 498443 509
586910 318260 470
415381 763682 509
122081 197834 383
982730 536875 525
451738 59574 449
468572 35338 449
133740 63644 354
626607 968237 525
760623 11926 509
263472 712684 509
37959 170980 383
256773 490661 449
899190 62119 525
463906 905365 525
499172 839936 525
625088 331693 470
123919 819246 509
462810 70280 449
595736 522388 452
598032 141795 470
54628 278794 443
109644 990648 525
107459 64035 354
470007 578816 470
810359 509573 509
211698 436103 449
828455 882882 525
841572 457938 525
471983 577382 470
336400 227655 443
63251 326966 443
86548 476775 449
853169 703186 525
593132 362373 470
964096 57026 525
577930 560091 421
56528 199401 383
896365 680966 525
744489 820156 468
784729 999505 525
898263 582422 525
307955 112653 443
804876 164692 509
807963 265044 509
961545 326186 525
966155 110111 525
630026 183965 509
92518 927128 525
695398 532297 509
818647 918450 525
841428 1561 525
599078 595418 372
832687 499092 509
453044 220732 449
324140 2643 443
411099 471928 444
725487 210995 509
789006 208798 509
399432 688885 509
405480 586616 470
625159 989893 525
278881 113910 443
734415 300123 509
398489 738855 509
225812 213013 386
35737 519573 470
299907 668661 509
273906 891538 525
159988 275043 443
865639 568625 525
117832 687056 509
499271 316098 449
60770 178390 383
861394 473812 525
430082 903944 525
13768 631740 509
308086 523014 470
631734 572529 509
229370 783128 509
673591 102860 509
988145 606959 525
130552 198900 383
183509 946938 525
949004 77033 525
214995 858345 525
388624 519618 470
644386 324933 509
344189 688448 509
941685 311020 525
451151 699173 509
22277 431321 449
68728 616788 470
886621 21984 525
344337 670750 509
513028 294463 470
425323 916321 525
812105 490931 509
253449 786469 509
65579 526911 470
603296 224254 470
584826 367167 470
133688 711759 509
265457 263535 332
534570 773568 509
168194 959352 525
106580 13453 354
611650 231956 470
425800 278180 449
437397 500442 444
649645 984525 525
81604 129446 354
268583 273412 407
445039 530176 470
510454 7048 449
186178 258766 443
283157 974253 525
171576 835485 509
374636 70379 443
381462 371131 423
111168 986486 525
717847 870342 525
651301 828042 504
24948 682454 509
897777 768029 525
351082 896403 525
437610 265695 449
56482 41714 340
379549 205901 443
645223 815672 504
799057 967820 525
303753 273171 389
575054 391910 470
201880 725365 509
471939 128767 449
65062 826661 509
375299 166829 443
919689 954969 507
970724 717137 525
588530 2822 470
509232 106719 449
562123 103631 470
404648 351568 436
209614 602073 470
87906 785488 509
736708 644674 504
83289 969192 525
289620 500783 449
3389 737243 509
1583 858446 525
171662 39388 383
130354 101132 354
239213 939889 525
459370 10708 449
16453 194102 383
794536 483102 509
345869 864951 525
48820 213277 383
806075 555441 509
570459 751916 509
913586 230151 525
971639 283653 525
646190 341887 509
514553 760956 509
299102 76773 443
118231 760484 509
435280 535512 470
319899 663299 509
321506 570770 470
340211 666080 509
652580 407144 509
228062 872720 525
994423 184228 525
763129 279640 509
144413 975603 525
601838 759895 509
234265 437655 449
443687 587276 470
4547 656315 509
834880 816247 450
103144 648227 509
723052 282070 509
17436 768534 509
458899 475115 444
624330 321038 470
859347 711485 525
980961 508104 525
749380 724040 424
889281 965000 507
761368 710018 424
87707 792685 509
291982 111310 443
982623 434189 525
279198 210508 443
22968 380206 443
378850 675101 509
247802 90657 443
447032 468561 444
407527 333105 441
744920 94137 509
791778 199172 509
270624 410197 449
731491 50572 509
231845 976537 525
18677 80432 351
175372 911312 525
33879 638618 509
106487 65204 354
481558 441466 444
517259 71609 470
989381 905479 507
863918 289957 525
146921 377927 443
655430 124637 509
797416 423683 509
206300 95987 383
451884 741744 509
186221 525933 470
133603 372450 443
985285 64227 525
461494 394703 449
965648 482102 525
919739 148886 525
748193 692055 504
277182 933687 525
1261 825146 509
206746 475792 449
72508 340757 443
626028 908077 525
54280 51018 340
215730 729798 509
150026 287083 443
539029 618587 452
808108 456909 509
348805 621154 470
921461 140319 525
316799 120664 443
67567 106329 354
165905 433825 449
44441 743899 509
35062 34766 218
846532 311512 525
604281 394260 470
745000 236906 509
748533 40674 509
44224 415495 449
505697 976437 525
703519 141023 509
167769 750404 509
946014 49290 525
488411 163668 449
912112 934929 476
874498 504316 525
186987 982989 525
763896 333768 509
502349 838580 525
999714 777706 525
248498 84016 443
790522 360587 509
123846 176396 383
287838 16875 443
858493 629982 525
576994 204389 470
986071 151398 525
275717 254791 407
24684 129822 354
122994 748846 509
511344 406677 449
184997 345628 443
338381 667322 509
481432 959076 525
860833 406205 525
207975 796284 509
305018 675845 509
994997 983631 427
149495 213306 383
3879 555379 470
456975 909435 525
935477 338842 525
167706 722960 509
888407 651327 525
12123 497742 449
538326 10461 470
932794 784089 525
482573 748750 509
665136 688197 442
578149 606026 434
