48056 953123 525
541311 275257 470
775521 118805 509
834733 368725 509
633475 350427 509
38499 601275 470
211700 721433 509
178849 842227 525
609263 26271 470
290546 779971 509
187986 776256 509
211633 209710 355
944230 705792 525
875103 14592 525
239719 521759 470
255084 807436 509
64362 482996 449
185308 424008 449
468419 70150 449
565351 190633 470
9481 71331 340
731443 360539 509
91404 734968 509
466722 487741 413
169871 646543 509
170156 792853 509
527532 220399 470
989770 643896 525
621823 986540 525
742096 160813 509
904418 710675 525
43862 895506 525
610903 380513 470
488302 489268 320
792821 457017 509
7686 6535 257
620310 664232 509
744958 990109 525
835020 373056 509
157199 563979 470
183400 831065 509
496048 49085 449
852244 855920 419
880575 769358 525
369913 977896 525
750970 254747 509
816208 308711 509
47502 68492 340
295177 403422 441
181313 171181 365
639431 837886 525
221450 925469 525
515549 995484 525
237013 688271 509
360945 853049 525
423151 281291 449
164953 670313 509
453248 579985 470
772037 952333 525
200960 520494 470
224591 501641 449
702686 20940 509
667087 143450 509
873604 721359 525
172740 411989 449
421918 207265 449
785932 704619 504
424837 123096 449
607732 788486 509
455922 336883 449
353235 238859 441
33393 469333 449
552603 664562 509
327522 372961 441
236633 415996 449
44014 198611 383
184549 307262 443
388146 61607 443
678120 986357 525
745202 934235 525
515622 506699 470
236203 87748 443
78160 867729 525
139537 715406 509
886809 371522 525
606025 60728 470
710926 407742 509
731154 27078 509
528817 968492 525
41317 865161 525
84085 129961 354
873284 502479 525
514518 364578 470
191973 476246 449
320769 872104 525
37313 586038 470
664731 799849 504
501204 186283 449
38293 838224 525
85180 622412 470
241526 493943 449
984058 486376 525
351256 609691 470
785748 798986 468
329430 106655 443
979215 547527 525
276854 731278 509
166927 168558 321
341751 278328 389
921137 174054 525
58943 962325 525
226994 829532 509
452059 588384 470
864764 637208 525
85731 362129 443
130678 338140 443
551394 977311 525
956608 840756 507
77416 893709 525
746248 142002 509
678788 199319 509
190437 127805 383
519229 269338 470
784922 588134 509
461283 818474 509
759436 976154 525
235705 607096 470
899725 15238 525
669509 486862 509
572756 904071 525
24957 53282 340
319893 229652 443
80706 246537 443
928940 661888 525
328929 623051 470
706628 484502 509
891143 114240 525
290115 492797 449
328628 619695 470
855956 372956 525
915568 50333 525
849804 926970 476
537569 403667 470
823043 925385 525
543261 231889 470
353139 238235 441
420946 524197 470
272536 878479 525
911591 905291 476
347656 754480 509
143915 972408 525
456601 869481 525
897930 158423 525
813469 861553 525
648612 635291 416
536358 174088 470
886662 918087 476
56329 588173 470
627592 994761 525
874146 681249 525
981364 618921 525
502479 800009 509
84132 852197 525
999945 213587 525
31762 249755 443
63896 67801 312
67170 368839 443
420664 297390 449
376156 940485 525
703798 918368 525
743561 789621 468
995332 509344 525
52202 121899 354
381578 623267 470
118833 441576 449
651168 69270 509
36346 544201 470
950959 779251 525
538383 152876 470
106473 905940 525
890512 548422 525
278256 505386 449
522139 802126 509
259804 491424 449
747892 751094 393
274693 835945 509
502029 984849 525
745442 685823 504
289618 983556 525
783385 452212 509
499025 540688 470
987289 654987 525
666134 145271 509
296265 495174 449
452637 117876 449
210003 170361 373
654946 42998 509
524524 380010 470
881459 348646 525
15480 514635 470
257037 190870 443
653432 502437 509
804244 776431 468
288077 398480 441
604107 686006 509
438806 708482 509
362133 846307 525
136933 614694 470
803195 570879 509
715396 570438 509
653811 630604 416
808319 111267 509
98106 543346 470
611905 506555 470
958511 865649 507
632818 133114 509
874983 124940 525
538208 827735 509
905925 237535 525
879806 405352 525
958159 767949 525
154305 568906 470
758904 773375 468
130427 673523 509
901226 946572 507
607461 512195 452
146221 536630 470
118709 316351 443
978939 530054 525
937479 899482 476
581259 173725 470
252041 335195 407
259561 356822 441
402497 479056 449
720792 536875 509
628598 425938 509
509808 788572 509
853046 448477 525
489761 277429 449
485531 797960 509
381225 93455 443
211049 233261 443
634933 2014 509
415702 302627 449
370469 573807 470
128094 613624 470
46145 810403 509
712009 317619 509
46268 468194 449
45034 473528 449
922205 639996 525
903218 968993 507
693100 209202 509
64205 191245 383
862189 24991 525
320577 668813 509
339468 662419 509
360185 884694 525
347472 464820 449
851778 843201 419
263335 804316 509
616026 492799 470
533654 723839 509
355929 385668 423
117915 668445 509
36185 176016 383
934089 911712 476
637519 343739 509
701668 719041 504
378495 890421 525
297622 964526 525
786380 277936 509
263868 800237 509
67091 751132 509
688364 643510 442
279415 851020 525
157584 936591 525
157830 749725 509
655001 432075 509
115568 438231 449
107182 609215 470
26789 911005 525
634332 457185 509
977051 107832 525
417131 579256 470
795993 922298 525
575008 255410 470
732310 474000 509
956696 14673 525
721881 33035 509
498808 941056 525
211749 216125 373
82975 269459 443
205027 28433 383
537491 138557 470
979837 695072 525
912641 112750 525
302484 267840 407
117415 625218 470
171799 500386 449
