327583 183033
442694 838447
924290 300146
760294 772951
385440 574177
533362 711315
865492 880722
154263 377762
567656 106801
826103 225874
326637 968416
296244 225761
276938 754975
925411 664255
54677 973763
647263 770001
439152 621471
483992 864304
546305 193845
342142 426353
741758 728698
598737 538097
96211 940991
154957 264249
867634 660866
317644 938672
466811 235136
479188 318657
306039 386021
783010 476772
471446 879912
596809 976411
781307 107453
374644 660039
123970 133858
459898 691489
258894 313076
525447 713393
917638 574522
551263 620788
917701 498785
526201 512448
352373 383379
367353 565967
969267 925088
395600 904156
893790 743752
139146 526911
895421 675154
821969 366921
270673 619701
647396 529301
32138 738964
288345 750665
745706 801091
270825 102496
846442 919373
618612 330004
670622 676729
197085 854310
413541 263833
314487 223103
802088 177521
204874 580199
907747 762987
632121 592439
136368 673716
261809 650212
953842 465860
160299 327632
978102 320506
698633 658601
866902 958064
984042 105918
122045 457415
237507 398154
892644 920033
125633 744706
104092 785651
366711 653714
561994 353248
123646 590478
583650 285964
255436 640116
909341 191347
637784 175993
319449 41691
116967 697529
929263 764436
760269 506810
90878 358405
953814 592408
723019 620718
816671 471262
781368 613043
567011 551040
219479 743742
727623 620563
36576 35193
582673 542524
839355 332467
863305 525987
21210 185217
603290 80403
791421 338910
701618 708995
441360 417798
944923 225994
816685 82752
607022 513306
825161 860451
419829 140067
578049 989291
837109 399176
513951 643678
213950 823301
398631 151596
466953 234226
798122 108901
993078 261329
963657 468216
586740 669590
37624 77188
341147 367816
390813 938213
103457 703168
834073 240834
686126 401192
609232 944712
960391 882952
396551 648325
656782 781381
918608 235028
470032 272537
623115 426196
887176 103293
93004 439543
816632 110550
718615 928379
630605 797695
404800 705541
133762 409642
592660 61624
105720 118082
49424 119230
205559 282641
676543 637929
57832 527498
708787 255870
550210 365359
432246 298289
606619 851756
917901 842916
123833 186685
460559 649700
782726 262285
932297 593387
716894 513811
542076 112316
784089 25422
728899 389972
662812 242597
217861 176436
716313 909356
499917 145522
294197 561108
286023 798385
57123 470706
31914 102985
322386 23036
515694 857627
24996 100360
523994 496403
955739 443171
975017 487970
108635 381213
141686 916505
308255 330865
327980 110608
535018 160466
492298 421460
275599 614899
662275 276153
77157 888994
855445 109620
540326 653299
676128 714910
607106 234006
372685 258329
583525 993329
535214 715083
26903 697530
106040 693127
348711 769561
664906 30821
120361 305122
222683 672554
488191 992508
453827 98361
98418 894600
17668 973843
586024 50124
30253 23615
212593 123181
301113 76520
106930 909646
190032 724164
684217 273460
847889 844951
623630 89262
197523 493895
834656 507235
700464 736158
327983 249177
411186 140086
604622 550175
722879 607746
10155 780607
814020 740009
727200 120107
134083 896533
141604 886000
734943 479756
208192 135854
229434 743038
39986 360743
811769 748246
359767 736314
502426 549054
108157 251999
408772 585387
394040 352002
834139 960683
935894 650354
472157 751735
669173 37007
787170 6402
458794 830669
553501 81096
951484 880972
706252 100643
307253 604142
775994 629282
478587 681270
956088 93567
264520 828777
57354 623269
254491 213063
126966 938338
235706 84381
787094 132552
320984 338733
371137 761809
419295 20011
292745 357308
560739 503324
