271551 824535
670664 940529
896822 380100
610871 33723
507946 376763
556632 992849
536801 875049
671430 837482
531482 794949
721915 550597
666133 875094
772814 709841
660347 48792
468744 736130
753863 206390
210902 703199
818209 961418
482783 134104
448853 845386
839143 760666
869176 602180
654812 467637
396695 401390
581291 51177
724070 162704
815582 513765
87156 558751
819541 255720
105243 535348
658048 353197
307805 764762
887994 526994
198105 489805
63049 482493
377420 995990
189220 849343
201222 300570
673512 448499
284792 218682
928779 672415
422620 604532
532228 185758
909286 724878
19042 267463
269810 518525
931545 512548
757511 821985
707811 203743
367307 96826
173749 609359
878288 79088
191155 222735
476393 606672
723480 535880
980446 706251
673759 300029
224528 901844
361992 367576
520333 393768
85315 225670
223743 170676
622717 980917
835973 455631
301331 500958
181943 813001
210672 770523
810496 399421
777283 166857
795726 307513
286344 798802
907919 444184
744264 491795
261648 613277
542941 56654
859234 38985
854480 235050
915024 778340
16968 692108
285706 524524
579174 847521
862265 668836
343654 43439
366799 835089
478506 367442
72984 921434
542478 846901
613794 468954
400229 346517
112952 467921
635580 439043
672182 356621
681675 387120
842283 591380
953479 699433
477248 497499
70941 871789
712487 343766
449552 390594
554852 30059
383217 728524
774962 322556
197972 369436
623889 428632
6520 99327
291951 458046
459069 358255
414556 676202
441526 673814
490644 415347
261133 120627
46603 345693
726163 541622
624274 733426
132755 939661
174717 739432
67310 965481
796798 632861
401386 496192
685464 584325
77108 243448
461072 176853
730896 2432
772806 279986
335475 986399
536077 698012
81540 961848
403832 129047
535711 487273
662126 469815
466370 800411
482655 641864
272981 379990
976827 47913
304541 716557
285535 242665
818357 469580
638996 404841
71026 903520
723501 58893
804863 780372
194752 214800
333069 707863
804501 46220
365048 24255
771026 653338
862328 316301
437811 195865
678718 533661
737477 756983
404458 2474
492439 183251
993908 655105
195638 897338
923942 637062
505123 378851
416009 490275
813235 590308
715076 326362
184248 149560
234732 456163
892299 867631
738059 721773
499869 295129
915968 709377
680445 965618
191446 407906
270592 374974
379812 978591
360789 944966
52358 93780
34707 587847
397633 482440
893377 901079
613791 423456
984090 213223
920187 858312
360629 113076
426815 467469
422565 610468
897573 996174
915908 972681
154204 997048
743699 656559
973258 698889
343966 493843
861087 481860
751958 879175
402110 735491
729705 467749
809088 792703
682214 181391
308835 244507
938372 916907
982095 194937
835224 388171
577296 777266
435651 421901
472324 392049
906939 844107
398237 520814
652643 597385
788766 936147
646680 498855
253693 688647
834172 614263
138946 744346
403321 918820
152941 82211
723837 794833
254673 210680
295456 771925
657308 287004
594286 224324
486704 734157
633916 870294
930829 910654
845410 206117
66625 179461
407128 239703
845440 520945
964451 541661
900264 476509
519208 954985
900465 209064
478132 613228
674570 412824
898672 845599
999480 445858
785020 164469
763549 325442
757110 44004
223578 556447
696180 487670
767107 275350
391488 258257
842206 885650
767402 48353
94941 780842
915463 881304
571884 3857
251194 13384
764818 592382
488375 287584
474455 198271
534548 532536
772289 749785
875427 165094
324222 658514
783964 562068
811188 540177
904542 733589
