611284 197662
242515 131231
631406 157253
798045 378456
384717 369076
811660 64804
865761 939516
389375 791051
7284 139900
35252 134818
911062 345558
235767 331364
968046 306110
736951 134389
768739 879226
748685 114040
61410 853849
613489 713960
983621 924323
738388 566878
363478 495102
219766 534577
646430 331772
802792 404632
812806 184358
325254 306471
101860 86048
407378 329409
545166 117087
938135 685583
47906 704795
84323 165028
777570 822942
107729 102220
256025 787108
413382 586592
142692 617462
314939 655696
934469 940702
966433 625943
583322 997054
906703 803744
602404 905284
434663 806150
598450 696799
16159 813544
678789 155750
554725 774688
302653 292266
691369 839487
884676 834655
163203 521375
701907 812758
126171 970619
205955 518841
239331 160390
269123 481944
554591 104428
356187 394209
196069 175076
634617 844397
207978 124560
842314 753616
194111 271602
612364 676568
753987 127952
92325 517773
915662 479473
621680 937309
879657 573714
855166 741312
336679 264113
702701 775322
76480 552656
136751 582288
269647 676329
746020 767090
906897 197609
236050 218099
466459 956988
381268 774094
423863 215595
994729 160890
147995 645649
798868 539650
869873 132399
858688 52057
107741 601646
63533 296852
891392 873233
5787 588225
457043 883938
952399 813360
449946 927838
672954 861108
163936 222097
955020 817729
618549 870745
63336 817416
33118 118586
223572 509568
36674 511191
102908 65797
557294 740478
318201 672645
677313 732142
954455 102324
628311 343687
114356 682838
178957 601654
512593 812640
777617 372334
334243 684704
178591 72319
259914 388724
152422 518483
528049 876774
189070 246465
398538 431127
946413 784172
906061 683254
459083 439395
263128 47571
482112 586851
341556 495797
631774 832886
257339 572024
249843 446760
76687 593690
219798 509273
861379 167820
107298 933092
162695 467960
232822 43883
732903 720469
359327 82296
421000 558191
546155 471501
411074 874126
224546 923414
238551 423999
172186 644833
347501 48328
108826 803020
246075 767928
313162 770592
595650 983061
77271 495645
746507 253741
483131 787843
46123 171488
502169 652960
694101 696762
608785 633592
89838 930883
531349 706283
569396 888827
564679 571798
177398 186601
164417 983035
795882 749390
465299 380782
482258 411316
163781 224720
480570 457359
535091 247312
515200 63484
140110 127725
719660 610147
93282 616618
124630 582333
556696 463004
70895 498953
621857 190719
840246 462754
670281 642250
385514 394363
483507 722464
953161 695357
926546 580202
566836 85260
354018 375834
733391 349653
238012 202539
251546 736348
4849 933375
330283 677670
172693 123752
796982 919241
544212 586102
622907 71325
545183 29112
264563 971129
420173 109988
157642 511038
481435 621915
490831 996878
852701 170421
178555 100821
70415 131014
344112 147992
911053 864828
134703 767757
41034 127583
684867 167354
871440 76421
227410 946540
498313 793069
118352 295384
73979 290553
560060 44074
716393 330954
463920 640803
543262 394788
505637 469691
524680 88313
694958 73652
785160 481514
877741 528364
535618 869540
276160 807263
723149 176258
884963 287840
186469 724175
961765 187877
422536 146316
516344 215695
862932 309624
384135 902140
181096 503024
512597 468237
593000 805822
723511 824404
645916 302086
985588 13914
969406 856837
884432 864909
772027 845046
88538 702892
55559 937934
237565 171648
381340 36907
169095 612399
944926 807848
712560 363288
324938 310393
312806 379539
849424 657369
532603 154690
43174 758365
876183 611958
570705 230598
418757 346392
711249 909334
115665 592889
511552 814093
458943 328600
489778 253907
898305 928954
650928 112580
227713 839092
293058 303329
760749 622423
