849702 75663
876697 690683
959347 223522
862112 757485
480606 53037
781564 874060
410337 913376
555801 643597
54701 769002
656122 658563
993596 35772
744795 61012
891965 967311
833348 287404
772566 359079
916560 87089
42733 864749
60971 338651
522778 861221
836345 523584
248239 765275
348209 664666
360597 755475
457679 66356
838667 683423
334882 561015
93226 505724
598852 687068
71003 994427
904572 713787
565490 310028
990318 995489
940637 670812
801608 72361
100658 781220
465231 378669
554318 634734
992482 305603
187536 544672
417390 429177
791372 981115
561798 559435
618886 220391
219116 372302
599339 872517
324801 19903
130876 557853
336178 93818
394258 438275
307763 266354
24038 531422
745437 460486
275291 548006
765250 768644
854776 922869
869991 403379
857329 639845
409180 654716
664699 901832
208925 274763
380187 332118
409238 629840
920971 755208
827900 799990
383611 700905
853191 106048
480465 139564
810314 520477
858782 250898
853840 273196
873957 725078
885786 469351
319304 880129
560132 404760
393736 366680
482726 808747
100670 376494
945321 337318
437305 722178
761243 220357
295590 715424
919892 242394
636631 629102
622754 451068
253290 820716
143248 358942
224317 62165
599352 663107
155834 736951
978283 433245
931588 741642
31664 923060
757476 76821
160740 212030
141193 476725
426770 643705
841625 819320
978635 602228
513120 203062
186748 395793
808532 884062
982233 947275
365100 659333
284418 217052
784869 840716
762346 460586
541657 932714
418101 677061
605470 273897
215971 384888
415726 654494
919618 584674
955808 192327
65408 363198
445129 604612
643 975617
864252 265905
868286 531326
68055 962823
336690 444329
265775 741970
243284 617120
735959 378798
211017 7115
826436 974258
109978 41649
475782 595182
626261 488328
485888 182557
114172 26812
154455 887066
910219 537748
976469 12765
209938 870429
777888 331744
418460 701783
784943 941330
368256 636619
707306 940045
156724 441437
827200 727375
378678 96713
620186 892554
18742 758578
604360 611075
676437 720570
864811 83283
525708 727927
426528 189428
82630 877883
706933 52914
513535 740175
81970 615281
877979 896898
730544 988426
525496 269987
584336 692985
601723 479623
66321 198929
815999 91959
709357 467855
119503 98609
296776 798072
806691 852261
322492 784058
337615 607448
163341 638377
681056 414751
876645 330982
591622 769139
395102 857011
286485 136197
173102 417715
436938 26622
740077 206782
12819 234946
927989 851925
965413 995583
623696 490540
258787 535329
722992 242182
914649 341867
422451 419901
427858 519480
49624 715884
89813 942056
282369 705985
995428 30284
655728 627117
801079 438351
389508 595810
78397 317842
465838 656513
425086 945325
407425 588762
389428 89606
548499 989797
630217 44908
142273 899379
831236 766369
366558 187777
810344 114140
668292 197973
722651 469563
593084 62760
243284 390534
119469 410733
129454 141940
347235 535128
145776 873027
647488 807402
238838 735139
290758 33643
617849 673644
394211 143172
687292 657060
392178 257160
962985 227018
264328 636065
134637 905127
606965 482213
169860 477030
12912 775741
921749 572614
540355 911048
122370 729677
198859 318925
656589 726136
580513 284711
28801 692270
933796 405723
524192 150723
481379 762916
677334 313275
427879 128079
326004 492510
60014 61826
890898 926035
661537 957185
225930 74194
988086 186677
972374 767189
107377 471112
958125 415688
595977 33585
85051 394209
477545 602767
663210 367810
452731 192684
413016 161087
